{
    "page": 1,
    "limit": 10,
    "pages": 3,
    "total": 22,
    "_links": {
        "self": {
            "href": "\/api\/v1\/stock-movements\/?page=1&limit=10"
        },
        "first": {
            "href": "\/api\/v1\/stock-movements\/?page=1&limit=10"
        },
        "last": {
            "href": "\/api\/v1\/stock-movements\/?page=3&limit=10"
        },
        "next": {
            "href": "\/api\/v1\/stock-movements\/?page=2&limit=10"
        }
    },
    "_embedded": {
        "items": [
            {
                "variant": "variant_code_1",
                "id": @integer@,
                "quantity": 1,
                "createdAt": "@string@.isDateTime()"
            },
            {
                "variant": "variant_code_2",
                "id": @integer@,
                "quantity": 1,
                "createdAt": "@string@.isDateTime()"
            },
            {
                "variant": "variant_code_2",
                "id": @integer@,
                "quantity": 1,
                "createdAt": "@string@.isDateTime()"
            },
            {
                "variant": "variant_code_4",
                "id": @integer@,
                "quantity": 1,
                "createdAt": "@string@.isDateTime()"
            },
            {
                "variant": "variant_code_5",
                "id": @integer@,
                "quantity": 1,
                "createdAt": "@string@.isDateTime()"
            },
            {
                "variant": "variant_code_6",
                "id": @integer@,
                "quantity": 1,
                "createdAt": "@string@.isDateTime()"
            },
            {
                "variant": "variant_code_7",
                "id": @integer@,
                "quantity": 1,
                "createdAt": "@string@.isDateTime()"
            },
            {
                "variant": "variant_code_8",
                "id": @integer@,
                "quantity": 1,
                "createdAt": "@string@.isDateTime()"
            },
            {
                "variant": "variant_code_9",
                "id": @integer@,
                "quantity": 1,
                "createdAt": "@string@.isDateTime()"
            },
            {
                "variant": "variant_code_10",
                "id": @integer@,
                "quantity": 1,
                "createdAt": "@string@.isDateTime()"
            }
        ]
    }
}
